%!PS-Adobe-2.0 EPSF-2.0
%%BoundingBox:  150 250 533 605
%%HiResBoundingBox: 150.000000 250.000000 533.000000 605.000000
% ------ Define procedures ------

%%EndComments
% EPSF created by ps2eps 1.68
%%BeginProlog
save
countdictstack
mark
newpath
/showpage {} def
/setpagedevice {pop} def
%%EndProlog
%%Page 1 1
/side
 { 0 72 lineto
   currentpoint translate
   -60 rotate } def
/hexagon
 { 0 36 moveto 
   currentpoint translate
   5 {side} repeat
   closepath 
   0 setgray fill
   -60 rotate
   } def
/circle1
 { /rada 34 def            %parameter
   0 72 rada 0 360 arc 
   1 setgray fill
   } def
/circle2
 { /radb 27.5 def            %parameter
   0 72 radb 0 360 arc
   0 setgray fill
   } def
/area1
 { 3 sqrt 36 mul neg 0 translate
   /cent01 73 def            %parameter
   /ang1  354 def              %parameter
   /thick rada radb sub def
   /rad1 cent01 72 rada sub sub def
   /rad2 rad1 thick sub def
   /invsq3 1 3 sqrt div def
   /ang2 ang1 270 sub def
   /x1 0 def
   /y1 cent01 rad1 sub def
   /x2 ang2 sin rad1 mul def
   /y2 ang1 sin rad1 mul cent01 add def
   /k1 x2 cent01 y2 sub div def
   /x3  108 y2 sub   k1 x2 mul  add  k1 invsq3 sub div def
   /y3  invsq3 x3 mul  108 add def
   /const1 thick  k1 k1 mul 1 add sqrt  div def
   /xp  k1 const1 mul neg x3 add def
   /yp y3 const1 add def
   /x4  108 yp sub   k1 xp mul  add  k1 invsq3 sub  div def
   /y4  invsq3 x4 mul  108 add def
   /x5 ang2 sin rad2 mul def
   /y5 ang1 sin rad2 mul cent01 add def
   /x6 0 def
   /y6 cent01 rad2 sub def
   x1 y1 moveto
   0 cent01 rad1 270 ang1 arc
   x3 y3 lineto
   x4 y4 lineto
   x5 y5 lineto
   0 cent01 rad2 ang1 270 arcn
   closepath
   1 setgray fill
   } def
/area2
 { /cent20 x3 3 add def         %parameter
   /ang3 12 def                    %parameter
   /x7 cent20 def
   /y7 x7 x3 sub k1 mul y3 add def
   /ang4 1 k1 neg atan def
   /x8 90 ang3 sub sin thick mul x7 add def
   /y8 ang3 sin thick mul y7 add def
   /k2 x8 x7 sub y8 y7 sub div neg def
   /x9 k2 x7 mul neg 108 sub y7 add invsq3 k2 sub div def
   /y9 invsq3 x9 mul 108 add def
   /x10 k2 x8 mul neg 108 sub y8 add invsq3 k2 sub div def
   /y10 invsq3 x10 mul 108 add def
   x3 y3 moveto
   x7 y7 lineto
   x9 y9 lineto
   x10 y10 lineto
   x8 y8 lineto
   x7 y7 thick ang3 ang4 arc
   x4 y4 lineto
   closepath
   0 setgray fill
   } def
/area3
 { /rad3 3 def                   %parameter
   /ang6 350 def                 %parameter
   /rad4 rad3 thick add def
   /cent30 3 sqrt 36 mul def
   /const2 rad3 k2 k2 mul 1 add sqrt div def
   /x11 k2 const2 mul cent30 add def
   /y11 x11 x10 sub k2 mul y10 add def
   /cent03 y11 const2 add def
   /ang5 1 neg k2 atan def
   /k3 ang6 cos ang6 sin div neg def
   /xp ang6 cos rad3 mul cent30 add def
   /yp ang6 sin rad3 mul cent03 add def
   /x12 k3 xp mul 180 add yp sub k3 invsq3 add div def
   /y12 invsq3 x12 mul neg 180 add def
   /x14 ang6 cos rad4 mul cent30 add def
   /y14 ang6 sin rad4 mul cent03 add def
   /x13 k3 x14 mul 180 add y14 sub k3 invsq3 add div def
   /y13 invsq3 x13 mul neg 180 add def
   x9 y9 moveto
   x10 y10 lineto
   x11 y11 lineto
   cent30 cent03 rad3 ang5 ang6 arc
   x12 y12 lineto
   x13 y13 lineto
   x14 y14 lineto
   cent30 cent03 rad4 ang6 ang5 arcn
   closepath
   1 setgray fill
   } def  
/area4
 { /cent40 x13 6 add def        %parameter
   /ang7 5.2 def                %parameter
   /x15 cent40 def
   /y15 x15 x13 sub k3 mul y13 add def
   /ang8 1 k3 neg atan def
   /x18 ang7 cos thick mul x15 add def
   /y18 ang7 sin thick mul y15 add def
   /k4 x18 x15 sub y18 y15 sub div neg def
   /x16 k4 x15 mul 180 add y15 sub k4 invsq3 add div def
   /y16 invsq3 x16 mul neg 180 add def
   /x17 k4 x18 mul 180 add y18 sub k4 invsq3 add div def
   /y17 invsq3 x17 mul neg 180 add def
   x12 y12 moveto
   x13 y13 lineto
   x15 y15 lineto
   x16 y16 lineto
   x17 y17 lineto
   x18 y18 lineto
   x15 y15 thick ang7 ang8 arc
   closepath
   0 setgray fill
   } def
/area5
 { /ang10 357 def            %parameter
   /y19 y1 thick add def
   /x19 y19 y17 sub k4 div x17 add def
   /ang9 1 neg k4 atan def
   /x26 ang10 cos thick mul x19 add def
   /y26 ang10 sin thick mul y19 add def
   /k5 ang10 cos ang10 sin div neg def
   /y25 2 rada mul y1 add thick sub def
   /x25 y25 y26 sub k5 div x26 add def
   /ang11 1 k5 neg atan def
   /x20 ang11 cos thick mul x25 add def
   /y20 ang11 sin thick mul y25 add def
   /x21 x25 thick add def
   /y21 y19 def
   /x22 3 sqrt 72 mul def
   /y22 y21 def
   /x23 x22 def
   /y23 y22 thick sub def
   /x24 x21 def
   /y24 y23 def
   x17 y17 moveto
   x19 y19 lineto
   x20 y20 lineto
   x25 y25 thick ang11 0 arcn
   x21 y21 lineto
   x22 y22 lineto
   x23 y23 lineto
   x24 y24 lineto
   x21 y21 thick 270 180 arcn
   x25 y25 lineto
   x26 y26 lineto
   x19 y19 thick ang10 ang9 arcn
   x16 y16 lineto
   closepath
   1 setgray fill
   } def
 
/text
 { /xt 3 sqrt 72 mul 5 add def
   /yt y1 def
   0 setgray
   xt yt moveto
   1 2 scale
   /Helvetica-Bold findfont 30 scalefont setfont
   (CAS) show
   1 0.5 scale
   } def
/logo
 { hexagon
   circle1
   circle2
   area1
   area2
   area3
   area4
   area5
   text
   } def
% ------- Begin program ------
150 250 translate
2.0 2.0 scale
logo
showpage 
%%Trailer
cleartomark
countdictstack
exch sub { end } repeat
restore
%%EOF
